digraph Tree {
node [shape=box] ;
0 [label="Relationship <= 0.5\ngini = 0.3658\nsamples = 19536\nvalue = [14829, 4707]"] ;
1 [label="Education-Num <= 12.5\ngini = 0.495\nsamples = 7870\nvalue = [4327, 3543]"] ;
0 -> 1 [labeldistance=2.5, labelangle=45, headlabel="True"] ;
2 [label="Capital Gain <= 5095.5\ngini = 0.4444\nsamples = 5554\nvalue = [3703, 1851]"] ;
1 -> 2 ;
3 [label="Education-Num <= 8.5\ngini = 0.4192\nsamples = 5278\nvalue = [3700, 1578]"] ;
2 -> 3 ;
4 [label="Capital Loss <= 1791.5\ngini = 0.1795\nsamples = 883\nvalue = [795, 88]"] ;
3 -> 4 ;
5 [label="Workclass <= 3.0\ngini = 0.1663\nsamples = 863\nvalue = [784, 79]"] ;
4 -> 5 ;
6 [label="gini = 0.0\nsamples = 112\nvalue = [112, 0]"] ;
5 -> 6 ;
7 [label="Age <= 37.5\ngini = 0.1883\nsamples = 751\nvalue = [672, 79]"] ;
5 -> 7 ;
8 [label="Hours per week <= 49.0\ngini = 0.095\nsamples = 260\nvalue = [247, 13]"] ;
7 -> 8 ;
9 [label="Occupation <= 2.0\ngini = 0.055\nsamples = 212\nvalue = [206, 6]"] ;
8 -> 9 ;
10 [label="gini = 0.5\nsamples = 2\nvalue = [1, 1]"] ;
9 -> 10 ;
11 [label="fnlwgt <= 180941.0\ngini = 0.0465\nsamples = 210\nvalue = [205, 5]"] ;
9 -> 11 ;
12 [label="gini = 0.126\nsamples = 74\nvalue = [69, 5]"] ;
11 -> 12 ;
13 [label="gini = 0.0\nsamples = 136\nvalue = [136, 0]"] ;
11 -> 13 ;
14 [label="gini = 0.2491\nsamples = 48\nvalue = [41, 7]"] ;
8 -> 14 ;
15 [label="Education <= 2.5\ngini = 0.2327\nsamples = 491\nvalue = [425, 66]"] ;
7 -> 15 ;
16 [label="Capital Gain <= 4164.0\ngini = 0.296\nsamples = 227\nvalue = [186, 41]"] ;
15 -> 16 ;
17 [label="Age <= 64.5\ngini = 0.2876\nsamples = 224\nvalue = [185, 39]"] ;
16 -> 17 ;
18 [label="Education <= 1.5\ngini = 0.3058\nsamples = 207\nvalue = [168, 39]"] ;
17 -> 18 ;
19 [label="Age <= 63.5\ngini = 0.2803\nsamples = 178\nvalue = [148, 30]"] ;
18 -> 19 ;
20 [label="Occupation <= 13.0\ngini = 0.2647\nsamples = 172\nvalue = [145, 27]"] ;
19 -> 20 ;
21 [label="Age <= 40.5\ngini = 0.2318\nsamples = 142\nvalue = [123, 19]"] ;
20 -> 21 ;
22 [label="gini = 0.4444\nsamples = 18\nvalue = [12, 6]"] ;
21 -> 22 ;
23 [label="fnlwgt <= 198194.5\ngini = 0.1877\nsamples = 124\nvalue = [111, 13]"] ;
21 -> 23 ;
24 [label="gini = 0.2566\nsamples = 86\nvalue = [73, 13]"] ;
23 -> 24 ;
25 [label="gini = 0.0\nsamples = 38\nvalue = [38, 0]"] ;
23 -> 25 ;
26 [label="gini = 0.3911\nsamples = 30\nvalue = [22, 8]"] ;
20 -> 26 ;
27 [label="gini = 0.5\nsamples = 6\nvalue = [3, 3]"] ;
19 -> 27 ;
28 [label="gini = 0.4281\nsamples = 29\nvalue = [20, 9]"] ;
18 -> 28 ;
29 [label="gini = 0.0\nsamples = 17\nvalue = [17, 0]"] ;
17 -> 29 ;
30 [label="gini = 0.4444\nsamples = 3\nvalue = [1, 2]"] ;
16 -> 30 ;
31 [label="Hours per week <= 54.5\ngini = 0.1715\nsamples = 264\nvalue = [239, 25]"] ;
15 -> 31 ;
32 [label="fnlwgt <= 37124.5\ngini = 0.1447\nsamples = 242\nvalue = [223, 19]"] ;
31 -> 32 ;
33 [label="gini = 0.4444\nsamples = 6\nvalue = [4, 2]"] ;
32 -> 33 ;
34 [label="fnlwgt <= 505027.0\ngini = 0.1337\nsamples = 236\nvalue = [219, 17]"] ;
32 -> 34 ;
35 [label="Workclass <= 4.5\ngini = 0.1274\nsamples = 234\nvalue = [218, 16]"] ;
34 -> 35 ;
36 [label="Age <= 50.5\ngini = 0.1002\nsamples = 189\nvalue = [179, 10]"] ;
35 -> 36 ;
37 [label="gini = 0.046\nsamples = 85\nvalue = [83, 2]"] ;
36 -> 37 ;
38 [label="Country <= 1.5\ngini = 0.142\nsamples = 104\nvalue = [96, 8]"] ;
36 -> 38 ;
39 [label="gini = 0.4444\nsamples = 3\nvalue = [2, 1]"] ;
38 -> 39 ;
40 [label="Occupation <= 5.5\ngini = 0.129\nsamples = 101\nvalue = [94, 7]"] ;
38 -> 40 ;
41 [label="gini = 0.2055\nsamples = 43\nvalue = [38, 5]"] ;
40 -> 41 ;
42 [label="gini = 0.0666\nsamples = 58\nvalue = [56, 2]"] ;
40 -> 42 ;
43 [label="gini = 0.2311\nsamples = 45\nvalue = [39, 6]"] ;
35 -> 43 ;
44 [label="gini = 0.5\nsamples = 2\nvalue = [1, 1]"] ;
34 -> 44 ;
45 [label="gini = 0.3967\nsamples = 22\nvalue = [16, 6]"] ;
31 -> 45 ;
46 [label="gini = 0.495\nsamples = 20\nvalue = [11, 9]"] ;
4 -> 46 ;
47 [label="Age <= 35.5\ngini = 0.4482\nsamples = 4395\nvalue = [2905, 1490]"] ;
3 -> 47 ;
48 [label="Age <= 27.5\ngini = 0.3297\nsamples = 1393\nvalue = [1103, 290]"] ;
47 -> 48 ;
49 [label="Hours per week <= 48.5\ngini = 0.1952\nsamples = 365\nvalue = [325, 40]"] ;
48 -> 49 ;
50 [label="Country <= 12.0\ngini = 0.1322\nsamples = 267\nvalue = [248, 19]"] ;
49 -> 50 ;
51 [label="gini = 0.5\nsamples = 6\nvalue = [3, 3]"] ;
50 -> 51 ;
52 [label="Occupation <= 12.5\ngini = 0.1151\nsamples = 261\nvalue = [245, 16]"] ;
50 -> 52 ;
53 [label="fnlwgt <= 205938.5\ngini = 0.0842\nsamples = 227\nvalue = [217, 10]"] ;
52 -> 53 ;
54 [label="Workclass <= 1.5\ngini = 0.0148\nsamples = 134\nvalue = [133, 1]"] ;
53 -> 54 ;
55 [label="gini = 0.375\nsamples = 4\nvalue = [3, 1]"] ;
54 -> 55 ;
56 [label="gini = 0.0\nsamples = 130\nvalue = [130, 0]"] ;
54 -> 56 ;
57 [label="gini = 0.1748\nsamples = 93\nvalue = [84, 9]"] ;
53 -> 57 ;
58 [label="gini = 0.2907\nsamples = 34\nvalue = [28, 6]"] ;
52 -> 58 ;
59 [label="gini = 0.3367\nsamples = 98\nvalue = [77, 21]"] ;
49 -> 59 ;
60 [label="Capital Loss <= 1794.0\ngini = 0.3681\nsamples = 1028\nvalue = [778, 250]"] ;
48 -> 60 ;
61 [label="Education-Num <= 9.5\ngini = 0.3569\nsamples = 1002\nvalue = [769, 233]"] ;
60 -> 61 ;
62 [label="Hours per week <= 56.0\ngini = 0.2965\nsamples = 569\nvalue = [466, 103]"] ;
61 -> 62 ;
63 [label="Country <= 39.5\ngini = 0.2729\nsamples = 503\nvalue = [421, 82]"] ;
62 -> 63 ;
64 [label="Race <= 3.5\ngini = 0.2684\nsamples = 501\nvalue = [421, 80]"] ;
63 -> 64 ;
65 [label="gini = 0.0965\nsamples = 59\nvalue = [56, 3]"] ;
64 -> 65 ;
66 [label="fnlwgt <= 118597.0\ngini = 0.2877\nsamples = 442\nvalue = [365, 77]"] ;
64 -> 66 ;
67 [label="fnlwgt <= 32122.5\ngini = 0.1815\nsamples = 109\nvalue = [98, 11]"] ;
66 -> 67 ;
68 [label="gini = 0.42\nsamples = 10\nvalue = [7, 3]"] ;
67 -> 68 ;
69 [label="gini = 0.1486\nsamples = 99\nvalue = [91, 8]"] ;
67 -> 69 ;
70 [label="fnlwgt <= 156217.0\ngini = 0.3178\nsamples = 333\nvalue = [267, 66]"] ;
66 -> 70 ;
71 [label="gini = 0.4352\nsamples = 50\nvalue = [34, 16]"] ;
70 -> 71 ;
72 [label="fnlwgt <= 199327.5\ngini = 0.2909\nsamples = 283\nvalue = [233, 50]"] ;
70 -> 72 ;
73 [label="Occupation <= 13.5\ngini = 0.199\nsamples = 116\nvalue = [103, 13]"] ;
72 -> 73 ;
74 [label="Occupation <= 12.5\ngini = 0.2224\nsamples = 102\nvalue = [89, 13]"] ;
73 -> 74 ;
75 [label="gini = 0.1975\nsamples = 99\nvalue = [88, 11]"] ;
74 -> 75 ;
76 [label="gini = 0.4444\nsamples = 3\nvalue = [1, 2]"] ;
74 -> 76 ;
77 [label="gini = 0.0\nsamples = 14\nvalue = [14, 0]"] ;
73 -> 77 ;
78 [label="fnlwgt <= 209210.0\ngini = 0.3449\nsamples = 167\nvalue = [130, 37]"] ;
72 -> 78 ;
79 [label="gini = 0.4688\nsamples = 32\nvalue = [20, 12]"] ;
78 -> 79 ;
80 [label="fnlwgt <= 217347.5\ngini = 0.3018\nsamples = 135\nvalue = [110, 25]"] ;
78 -> 80 ;
81 [label="gini = 0.0\nsamples = 15\nvalue = [15, 0]"] ;
80 -> 81 ;
82 [label="fnlwgt <= 217749.5\ngini = 0.3299\nsamples = 120\nvalue = [95, 25]"] ;
80 -> 82 ;
83 [label="gini = 0.0\nsamples = 1\nvalue = [0, 1]"] ;
82 -> 83 ;
84 [label="Workclass <= 5.5\ngini = 0.322\nsamples = 119\nvalue = [95, 24]"] ;
82 -> 84 ;
85 [label="Workclass <= 4.5\ngini = 0.3517\nsamples = 101\nvalue = [78, 23]"] ;
84 -> 85 ;
86 [label="gini = 0.3249\nsamples = 98\nvalue = [78, 20]"] ;
85 -> 86 ;
87 [label="gini = 0.0\nsamples = 3\nvalue = [0, 3]"] ;
85 -> 87 ;
88 [label="gini = 0.1049\nsamples = 18\nvalue = [17, 1]"] ;
84 -> 88 ;
89 [label="gini = 0.0\nsamples = 2\nvalue = [0, 2]"] ;
63 -> 89 ;
90 [label="gini = 0.4339\nsamples = 66\nvalue = [45, 21]"] ;
62 -> 90 ;
91 [label="fnlwgt <= 507150.5\ngini = 0.4202\nsamples = 433\nvalue = [303, 130]"] ;
61 -> 91 ;
92 [label="Workclass <= 5.5\ngini = 0.4141\nsamples = 427\nvalue = [302, 125]"] ;
91 -> 92 ;
93 [label="fnlwgt <= 27687.5\ngini = 0.4289\nsamples = 382\nvalue = [263, 119]"] ;
92 -> 93 ;
94 [label="gini = 0.2778\nsamples = 6\nvalue = [1, 5]"] ;
93 -> 94 ;
95 [label="fnlwgt <= 73076.0\ngini = 0.4225\nsamples = 376\nvalue = [262, 114]"] ;
93 -> 95 ;
96 [label="gini = 0.258\nsamples = 46\nvalue = [39, 7]"] ;
95 -> 96 ;
97 [label="Capital Loss <= 1532.0\ngini = 0.4382\nsamples = 330\nvalue = [223, 107]"] ;
95 -> 97 ;
98 [label="Age <= 30.5\ngini = 0.4451\nsamples = 320\nvalue = [213, 107]"] ;
97 -> 98 ;
99 [label="fnlwgt <= 107908.0\ngini = 0.3844\nsamples = 104\nvalue = [77, 27]"] ;
98 -> 99 ;
100 [label="gini = 0.4688\nsamples = 8\nvalue = [3, 5]"] ;
99 -> 100 ;
101 [label="gini = 0.3533\nsamples = 96\nvalue = [74, 22]"] ;
99 -> 101 ;
102 [label="Workclass <= 3.0\ngini = 0.4664\nsamples = 216\nvalue = [136, 80]"] ;
98 -> 102 ;
103 [label="gini = 0.3367\nsamples = 28\nvalue = [22, 6]"] ;
102 -> 103 ;
104 [label="fnlwgt <= 416072.0\ngini = 0.4774\nsamples = 188\nvalue = [114, 74]"] ;
102 -> 104 ;
105 [label="Hours per week <= 54.5\ngini = 0.4724\nsamples = 183\nvalue = [113, 70]"] ;
104 -> 105 ;
106 [label="fnlwgt <= 228248.5\ngini = 0.4567\nsamples = 153\nvalue = [99, 54]"] ;
105 -> 106 ;
107 [label="Age <= 31.5\ngini = 0.4807\nsamples = 107\nvalue = [64, 43]"] ;
106 -> 107 ;
108 [label="gini = 0.4959\nsamples = 22\nvalue = [10, 12]"] ;
107 -> 108 ;
109 [label="gini = 0.4634\nsamples = 85\nvalue = [54, 31]"] ;
107 -> 109 ;
110 [label="gini = 0.3639\nsamples = 46\nvalue = [35, 11]"] ;
106 -> 110 ;
111 [label="gini = 0.4978\nsamples = 30\nvalue = [14, 16]"] ;
105 -> 111 ;
112 [label="gini = 0.32\nsamples = 5\nvalue = [1, 4]"] ;
104 -> 112 ;
113 [label="gini = 0.0\nsamples = 10\nvalue = [10, 0]"] ;
97 -> 113 ;
114 [label="gini = 0.2311\nsamples = 45\nvalue = [39, 6]"] ;
92 -> 114 ;
115 [label="gini = 0.2778\nsamples = 6\nvalue = [1, 5]"] ;
91 -> 115 ;
116 [label="gini = 0.4527\nsamples = 26\nvalue = [9, 17]"] ;
60 -> 116 ;
117 [label="Capital Loss <= 1782.5\ngini = 0.4799\nsamples = 3002\nvalue = [1802, 1200]"] ;
47 -> 117 ;
118 [label="Hours per week <= 34.5\ngini = 0.4718\nsamples = 2861\nvalue = [1770, 1091]"] ;
117 -> 118 ;
119 [label="Education-Num <= 9.5\ngini = 0.2202\nsamples = 254\nvalue = [222, 32]"] ;
118 -> 119 ;
120 [label="Occupation <= 10.5\ngini = 0.151\nsamples = 158\nvalue = [145, 13]"] ;
119 -> 120 ;
121 [label="Capital Gain <= 4102.0\ngini = 0.1073\nsamples = 123\nvalue = [116, 7]"] ;
120 -> 121 ;
122 [label="Hours per week <= 2.0\ngini = 0.095\nsamples = 120\nvalue = [114, 6]"] ;
121 -> 122 ;
123 [label="gini = 0.4444\nsamples = 3\nvalue = [2, 1]"] ;
122 -> 123 ;
124 [label="fnlwgt <= 182082.5\ngini = 0.0818\nsamples = 117\nvalue = [112, 5]"] ;
122 -> 124 ;
125 [label="gini = 0.0\nsamples = 54\nvalue = [54, 0]"] ;
124 -> 125 ;
126 [label="gini = 0.1461\nsamples = 63\nvalue = [58, 5]"] ;
124 -> 126 ;
127 [label="gini = 0.4444\nsamples = 3\nvalue = [2, 1]"] ;
121 -> 127 ;
128 [label="gini = 0.2841\nsamples = 35\nvalue = [29, 6]"] ;
120 -> 128 ;
129 [label="gini = 0.3175\nsamples = 96\nvalue = [77, 19]"] ;
119 -> 129 ;
130 [label="Workclass <= 5.5\ngini = 0.4824\nsamples = 2607\nvalue = [1548, 1059]"] ;
118 -> 130 ;
131 [label="Education-Num <= 9.5\ngini = 0.4916\nsamples = 2180\nvalue = [1231, 949]"] ;
130 -> 131 ;
132 [label="Hours per week <= 41.5\ngini = 0.4708\nsamples = 1224\nvalue = [760, 464]"] ;
131 -> 132 ;
133 [label="Age <= 46.5\ngini = 0.4467\nsamples = 790\nvalue = [524, 266]"] ;
132 -> 133 ;
134 [label="Race <= 1.5\ngini = 0.3948\nsamples = 351\nvalue = [256, 95]"] ;
133 -> 134 ;
135 [label="gini = 0.0\nsamples = 13\nvalue = [13, 0]"] ;
134 -> 135 ;
136 [label="Workclass <= 3.0\ngini = 0.4041\nsamples = 338\nvalue = [243, 95]"] ;
134 -> 136 ;
137 [label="gini = 0.4835\nsamples = 44\nvalue = [26, 18]"] ;
136 -> 137 ;
138 [label="fnlwgt <= 351236.0\ngini = 0.3866\nsamples = 294\nvalue = [217, 77]"] ;
136 -> 138 ;
139 [label="Capital Gain <= 1414.5\ngini = 0.3684\nsamples = 267\nvalue = [202, 65]"] ;
138 -> 139 ;
140 [label="fnlwgt <= 113824.0\ngini = 0.3779\nsamples = 257\nvalue = [192, 65]"] ;
139 -> 140 ;
141 [label="gini = 0.2622\nsamples = 58\nvalue = [49, 9]"] ;
140 -> 141 ;
142 [label="Workclass <= 4.5\ngini = 0.4044\nsamples = 199\nvalue = [143, 56]"] ;
140 -> 142 ;
143 [label="Occupation <= 9.0\ngini = 0.395\nsamples = 192\nvalue = [140, 52]"] ;
142 -> 143 ;
144 [label="Age <= 38.5\ngini = 0.3635\nsamples = 155\nvalue = [118, 37]"] ;
143 -> 144 ;
145 [label="gini = 0.1761\nsamples = 41\nvalue = [37, 4]"] ;
144 -> 145 ;
146 [label="fnlwgt <= 117054.0\ngini = 0.4114\nsamples = 114\nvalue = [81, 33]"] ;
144 -> 146 ;
147 [label="gini = 0.0\nsamples = 2\nvalue = [0, 2]"] ;
146 -> 147 ;
148 [label="gini = 0.4004\nsamples = 112\nvalue = [81, 31]"] ;
146 -> 148 ;
149 [label="gini = 0.4821\nsamples = 37\nvalue = [22, 15]"] ;
143 -> 149 ;
150 [label="gini = 0.4898\nsamples = 7\nvalue = [3, 4]"] ;
142 -> 150 ;
151 [label="gini = 0.0\nsamples = 10\nvalue = [10, 0]"] ;
139 -> 151 ;
152 [label="gini = 0.4938\nsamples = 27\nvalue = [15, 12]"] ;
138 -> 152 ;
153 [label="Age <= 55.5\ngini = 0.4756\nsamples = 439\nvalue = [268, 171]"] ;
133 -> 153 ;
154 [label="fnlwgt <= 465622.0\ngini = 0.4984\nsamples = 250\nvalue = [132, 118]"] ;
153 -> 154 ;
155 [label="fnlwgt <= 395249.0\ngini = 0.4973\nsamples = 246\nvalue = [132, 114]"] ;
154 -> 155 ;
156 [label="Capital Gain <= 2966.0\ngini = 0.4988\nsamples = 240\nvalue = [126, 114]"] ;
155 -> 156 ;
157 [label="fnlwgt <= 230550.5\ngini = 0.4965\nsamples = 227\nvalue = [123, 104]"] ;
156 -> 157 ;
158 [label="fnlwgt <= 162998.0\ngini = 0.4998\nsamples = 184\nvalue = [94, 90]"] ;
157 -> 158 ;
159 [label="Workclass <= 4.5\ngini = 0.4842\nsamples = 107\nvalue = [63, 44]"] ;
158 -> 159 ;
160 [label="Race <= 3.0\ngini = 0.4776\nsamples = 104\nvalue = [63, 41]"] ;
159 -> 160 ;
161 [label="gini = 0.1653\nsamples = 11\nvalue = [10, 1]"] ;
160 -> 161 ;
162 [label="gini = 0.4902\nsamples = 93\nvalue = [53, 40]"] ;
160 -> 162 ;
163 [label="gini = 0.0\nsamples = 3\nvalue = [0, 3]"] ;
159 -> 163 ;
164 [label="gini = 0.481\nsamples = 77\nvalue = [31, 46]"] ;
158 -> 164 ;
165 [label="gini = 0.4392\nsamples = 43\nvalue = [29, 14]"] ;
157 -> 165 ;
166 [label="gini = 0.355\nsamples = 13\nvalue = [3, 10]"] ;
156 -> 166 ;
167 [label="gini = 0.0\nsamples = 6\nvalue = [6, 0]"] ;
155 -> 167 ;
168 [label="gini = 0.0\nsamples = 4\nvalue = [0, 4]"] ;
154 -> 168 ;
169 [label="fnlwgt <= 76078.0\ngini = 0.4036\nsamples = 189\nvalue = [136, 53]"] ;
153 -> 169 ;
170 [label="gini = 0.4444\nsamples = 21\nvalue = [7, 14]"] ;
169 -> 170 ;
171 [label="Workclass <= 4.5\ngini = 0.3565\nsamples = 168\nvalue = [129, 39]"] ;
169 -> 171 ;
172 [label="Age <= 70.5\ngini = 0.3305\nsamples = 158\nvalue = [125, 33]"] ;
171 -> 172 ;
173 [label="fnlwgt <= 192956.0\ngini = 0.3068\nsamples = 148\nvalue = [120, 28]"] ;
172 -> 173 ;
174 [label="gini = 0.3723\nsamples = 93\nvalue = [70, 23]"] ;
173 -> 174 ;
175 [label="gini = 0.1653\nsamples = 55\nvalue = [50, 5]"] ;
173 -> 175 ;
176 [label="gini = 0.5\nsamples = 10\nvalue = [5, 5]"] ;
172 -> 176 ;
177 [label="gini = 0.48\nsamples = 10\nvalue = [4, 6]"] ;
171 -> 177 ;
178 [label="Occupation <= 7.5\ngini = 0.4962\nsamples = 434\nvalue = [236, 198]"] ;
132 -> 178 ;
179 [label="fnlwgt <= 94849.0\ngini = 0.4995\nsamples = 256\nvalue = [124, 132]"] ;
178 -> 179 ;
180 [label="gini = 0.4497\nsamples = 41\nvalue = [27, 14]"] ;
179 -> 180 ;
181 [label="fnlwgt <= 112445.0\ngini = 0.4952\nsamples = 215\nvalue = [97, 118]"] ;
179 -> 181 ;
182 [label="gini = 0.2076\nsamples = 17\nvalue = [2, 15]"] ;
181 -> 182 ;
183 [label="Capital Loss <= 1532.0\ngini = 0.4992\nsamples = 198\nvalue = [95, 103]"] ;
181 -> 183 ;
184 [label="Country <= 32.5\ngini = 0.4981\nsamples = 194\nvalue = [91, 103]"] ;
183 -> 184 ;
185 [label="gini = 0.0\nsamples = 4\nvalue = [4, 0]"] ;
184 -> 185 ;
186 [label="fnlwgt <= 291340.5\ngini = 0.4965\nsamples = 190\nvalue = [87, 103]"] ;
184 -> 186 ;
187 [label="fnlwgt <= 248812.5\ngini = 0.4993\nsamples = 166\nvalue = [80, 86]"] ;
186 -> 187 ;
188 [label="Age <= 43.5\ngini = 0.4965\nsamples = 155\nvalue = [71, 84]"] ;
187 -> 188 ;
189 [label="gini = 0.4956\nsamples = 64\nvalue = [35, 29]"] ;
188 -> 189 ;
190 [label="gini = 0.4782\nsamples = 91\nvalue = [36, 55]"] ;
188 -> 190 ;
191 [label="gini = 0.2975\nsamples = 11\nvalue = [9, 2]"] ;
187 -> 191 ;
192 [label="gini = 0.4132\nsamples = 24\nvalue = [7, 17]"] ;
186 -> 192 ;
193 [label="gini = 0.0\nsamples = 4\nvalue = [4, 0]"] ;
183 -> 193 ;
194 [label="fnlwgt <= 375330.0\ngini = 0.4666\nsamples = 178\nvalue = [112, 66]"] ;
178 -> 194 ;
195 [label="fnlwgt <= 232174.5\ngini = 0.4565\nsamples = 173\nvalue = [112, 61]"] ;
194 -> 195 ;
196 [label="Age <= 38.5\ngini = 0.4746\nsamples = 142\nvalue = [87, 55]"] ;
195 -> 196 ;
197 [label="gini = 0.3282\nsamples = 29\nvalue = [23, 6]"] ;
196 -> 197 ;
198 [label="fnlwgt <= 172231.0\ngini = 0.4912\nsamples = 113\nvalue = [64, 49]"] ;
196 -> 198 ;
199 [label="gini = 0.4696\nsamples = 77\nvalue = [48, 29]"] ;
198 -> 199 ;
200 [label="gini = 0.4938\nsamples = 36\nvalue = [16, 20]"] ;
198 -> 200 ;
201 [label="gini = 0.3122\nsamples = 31\nvalue = [25, 6]"] ;
195 -> 201 ;
202 [label="gini = 0.0\nsamples = 5\nvalue = [0, 5]"] ;
194 -> 202 ;
203 [label="fnlwgt <= 117166.0\ngini = 0.4999\nsamples = 956\nvalue = [471, 485]"] ;
131 -> 203 ;
204 [label="Occupation <= 4.5\ngini = 0.4824\nsamples = 261\nvalue = [155, 106]"] ;
203 -> 204 ;
205 [label="Capital Loss <= 742.5\ngini = 0.4992\nsamples = 127\nvalue = [66, 61]"] ;
204 -> 205 ;
206 [label="Age <= 64.5\ngini = 0.5\nsamples = 123\nvalue = [62, 61]"] ;
205 -> 206 ;
207 [label="fnlwgt <= 73305.5\ngini = 0.4999\nsamples = 120\nvalue = [59, 61]"] ;
206 -> 207 ;
208 [label="gini = 0.4882\nsamples = 52\nvalue = [30, 22]"] ;
207 -> 208 ;
209 [label="gini = 0.4892\nsamples = 68\nvalue = [29, 39]"] ;
207 -> 209 ;
210 [label="gini = 0.0\nsamples = 3\nvalue = [3, 0]"] ;
206 -> 210 ;
211 [label="gini = 0.0\nsamples = 4\nvalue = [4, 0]"] ;
205 -> 211 ;
212 [label="Workclass <= 4.5\ngini = 0.4461\nsamples = 134\nvalue = [89, 45]"] ;
204 -> 212 ;
213 [label="Race <= 1.5\ngini = 0.42\nsamples = 120\nvalue = [84, 36]"] ;
212 -> 213 ;
214 [label="gini = 0.4959\nsamples = 11\nvalue = [5, 6]"] ;
213 -> 214 ;
215 [label="Occupation <= 10.5\ngini = 0.399\nsamples = 109\nvalue = [79, 30]"] ;
213 -> 215 ;
216 [label="gini = 0.2509\nsamples = 34\nvalue = [29, 5]"] ;
215 -> 216 ;
217 [label="gini = 0.4444\nsamples = 75\nvalue = [50, 25]"] ;
215 -> 217 ;
218 [label="gini = 0.4592\nsamples = 14\nvalue = [5, 9]"] ;
212 -> 218 ;
219 [label="Hours per week <= 43.5\ngini = 0.4959\nsamples = 695\nvalue = [316, 379]"] ;
203 -> 219 ;
220 [label="Age <= 47.5\ngini = 0.5\nsamples = 413\nvalue = [207, 206]"] ;
219 -> 220 ;
221 [label="Workclass <= 3.0\ngini = 0.4923\nsamples = 242\nvalue = [136, 106]"] ;
220 -> 221 ;
222 [label="gini = 0.466\nsamples = 46\nvalue = [17, 29]"] ;
221 -> 222 ;
223 [label="Occupation <= 13.5\ngini = 0.477\nsamples = 196\nvalue = [119, 77]"] ;
221 -> 223 ;
224 [label="Occupation <= 9.0\ngini = 0.4852\nsamples = 186\nvalue = [109, 77]"] ;
223 -> 224 ;
225 [label="Country <= 6.5\ngini = 0.4565\nsamples = 139\nvalue = [90, 49]"] ;
224 -> 225 ;
226 [label="gini = 0.32\nsamples = 5\nvalue = [1, 4]"] ;
225 -> 226 ;
227 [label="fnlwgt <= 131978.0\ngini = 0.4461\nsamples = 134\nvalue = [89, 45]"] ;
225 -> 227 ;
228 [label="gini = 0.0\nsamples = 8\nvalue = [8, 0]"] ;
227 -> 228 ;
229 [label="fnlwgt <= 448350.0\ngini = 0.4592\nsamples = 126\nvalue = [81, 45]"] ;
227 -> 229 ;
230 [label="fnlwgt <= 393745.5\ngini = 0.4672\nsamples = 121\nvalue = [76, 45]"] ;
229 -> 230 ;
231 [label="Capital Gain <= 2755.0\ngini = 0.4537\nsamples = 115\nvalue = [75, 40]"] ;
230 -> 231 ;
232 [label="gini = 0.4381\nsamples = 108\nvalue = [73, 35]"] ;
231 -> 232 ;
233 [label="gini = 0.4082\nsamples = 7\nvalue = [2, 5]"] ;
231 -> 233 ;
234 [label="gini = 0.2778\nsamples = 6\nvalue = [1, 5]"] ;
230 -> 234 ;
235 [label="gini = 0.0\nsamples = 5\nvalue = [5, 0]"] ;
229 -> 235 ;
236 [label="gini = 0.4817\nsamples = 47\nvalue = [19, 28]"] ;
224 -> 236 ;
237 [label="gini = 0.0\nsamples = 10\nvalue = [10, 0]"] ;
223 -> 237 ;
238 [label="fnlwgt <= 136438.0\ngini = 0.4856\nsamples = 171\nvalue = [71, 100]"] ;
220 -> 238 ;
239 [label="gini = 0.1723\nsamples = 21\nvalue = [2, 19]"] ;
238 -> 239 ;
240 [label="Age <= 57.5\ngini = 0.4968\nsamples = 150\nvalue = [69, 81]"] ;
238 -> 240 ;
241 [label="Occupation <= 2.0\ngini = 0.4807\nsamples = 112\nvalue = [45, 67]"] ;
240 -> 241 ;
242 [label="gini = 0.375\nsamples = 8\nvalue = [6, 2]"] ;
241 -> 242 ;
243 [label="Occupation <= 4.5\ngini = 0.4688\nsamples = 104\nvalue = [39, 65]"] ;
241 -> 243 ;
244 [label="gini = 0.3856\nsamples = 46\nvalue = [12, 34]"] ;
243 -> 244 ;
245 [label="gini = 0.4976\nsamples = 58\nvalue = [27, 31]"] ;
243 -> 245 ;
246 [label="gini = 0.4654\nsamples = 38\nvalue = [24, 14]"] ;
240 -> 246 ;
247 [label="Age <= 61.5\ngini = 0.4742\nsamples = 282\nvalue = [109, 173]"] ;
219 -> 247 ;
248 [label="Occupation <= 4.5\ngini = 0.4685\nsamples = 275\nvalue = [103, 172]"] ;
247 -> 248 ;
249 [label="fnlwgt <= 210098.0\ngini = 0.4242\nsamples = 131\nvalue = [40, 91]"] ;
248 -> 249 ;
250 [label="gini = 0.4762\nsamples = 87\nvalue = [34, 53]"] ;
249 -> 250 ;
251 [label="gini = 0.2355\nsamples = 44\nvalue = [6, 38]"] ;
249 -> 251 ;
252 [label="Occupation <= 9.0\ngini = 0.4922\nsamples = 144\nvalue = [63, 81]"] ;
248 -> 252 ;
253 [label="gini = 0.4132\nsamples = 24\nvalue = [17, 7]"] ;
252 -> 253 ;
254 [label="Hours per week <= 49.0\ngini = 0.4728\nsamples = 120\nvalue = [46, 74]"] ;
252 -> 254 ;
255 [label="gini = 0.3673\nsamples = 33\nvalue = [8, 25]"] ;
254 -> 255 ;
256 [label="gini = 0.492\nsamples = 87\nvalue = [38, 49]"] ;
254 -> 256 ;
257 [label="gini = 0.2449\nsamples = 7\nvalue = [6, 1]"] ;
247 -> 257 ;
258 [label="fnlwgt <= 353410.0\ngini = 0.3825\nsamples = 427\nvalue = [317, 110]"] ;
130 -> 258 ;
259 [label="fnlwgt <= 29268.5\ngini = 0.3661\nsamples = 402\nvalue = [305, 97]"] ;
258 -> 259 ;
260 [label="gini = 0.4983\nsamples = 17\nvalue = [8, 9]"] ;
259 -> 260 ;
261 [label="Age <= 68.5\ngini = 0.3527\nsamples = 385\nvalue = [297, 88]"] ;
259 -> 261 ;
262 [label="Age <= 45.5\ngini = 0.3639\nsamples = 368\nvalue = [280, 88]"] ;
261 -> 262 ;
263 [label="Age <= 42.5\ngini = 0.2892\nsamples = 154\nvalue = [127, 27]"] ;
262 -> 263 ;
264 [label="fnlwgt <= 347336.0\ngini = 0.3389\nsamples = 111\nvalue = [87, 24]"] ;
263 -> 264 ;
265 [label="fnlwgt <= 33901.0\ngini = 0.3307\nsamples = 110\nvalue = [87, 23]"] ;
264 -> 265 ;
266 [label="gini = 0.0\nsamples = 8\nvalue = [8, 0]"] ;
265 -> 266 ;
267 [label="fnlwgt <= 93823.0\ngini = 0.3493\nsamples = 102\nvalue = [79, 23]"] ;
265 -> 267 ;
268 [label="gini = 0.4835\nsamples = 22\nvalue = [13, 9]"] ;
267 -> 268 ;
269 [label="gini = 0.2887\nsamples = 80\nvalue = [66, 14]"] ;
267 -> 269 ;
270 [label="gini = 0.0\nsamples = 1\nvalue = [0, 1]"] ;
264 -> 270 ;
271 [label="gini = 0.1298\nsamples = 43\nvalue = [40, 3]"] ;
263 -> 271 ;
272 [label="Education-Num <= 9.5\ngini = 0.4076\nsamples = 214\nvalue = [153, 61]"] ;
262 -> 272 ;
273 [label="Hours per week <= 51.0\ngini = 0.3589\nsamples = 128\nvalue = [98, 30]"] ;
272 -> 273 ;
274 [label="gini = 0.3056\nsamples = 85\nvalue = [69, 16]"] ;
273 -> 274 ;
275 [label="gini = 0.4392\nsamples = 43\nvalue = [29, 14]"] ;
273 -> 275 ;
276 [label="gini = 0.4611\nsamples = 86\nvalue = [55, 31]"] ;
272 -> 276 ;
277 [label="gini = 0.0\nsamples = 17\nvalue = [17, 0]"] ;
261 -> 277 ;
278 [label="gini = 0.4992\nsamples = 25\nvalue = [12, 13]"] ;
258 -> 278 ;
279 [label="Capital Loss <= 1989.5\ngini = 0.3509\nsamples = 141\nvalue = [32, 109]"] ;
117 -> 279 ;
280 [label="Age <= 66.5\ngini = 0.074\nsamples = 104\nvalue = [4, 100]"] ;
279 -> 280 ;
281 [label="fnlwgt <= 66844.5\ngini = 0.0566\nsamples = 103\nvalue = [3, 100]"] ;
280 -> 281 ;
282 [label="gini = 0.2975\nsamples = 11\nvalue = [2, 9]"] ;
281 -> 282 ;
283 [label="gini = 0.0215\nsamples = 92\nvalue = [1, 91]"] ;
281 -> 283 ;
284 [label="gini = 0.0\nsamples = 1\nvalue = [1, 0]"] ;
280 -> 284 ;
285 [label="gini = 0.3682\nsamples = 37\nvalue = [28, 9]"] ;
279 -> 285 ;
286 [label="Hours per week <= 8.0\ngini = 0.0215\nsamples = 276\nvalue = [3, 273]"] ;
2 -> 286 ;
287 [label="gini = 0.0\nsamples = 1\nvalue = [1, 0]"] ;
286 -> 287 ;
288 [label="Age <= 61.5\ngini = 0.0144\nsamples = 275\nvalue = [2, 273]"] ;
286 -> 288 ;
289 [label="gini = 0.0\nsamples = 249\nvalue = [0, 249]"] ;
288 -> 289 ;
290 [label="gini = 0.142\nsamples = 26\nvalue = [2, 24]"] ;
288 -> 290 ;
291 [label="Capital Gain <= 5095.5\ngini = 0.3937\nsamples = 2316\nvalue = [624, 1692]"] ;
1 -> 291 ;
292 [label="Hours per week <= 31.0\ngini = 0.4335\nsamples = 1961\nvalue = [623, 1338]"] ;
291 -> 292 ;
293 [label="Education <= 9.5\ngini = 0.4091\nsamples = 129\nvalue = [92, 37]"] ;
292 -> 293 ;
294 [label="gini = 0.256\nsamples = 73\nvalue = [62, 11]"] ;
293 -> 294 ;
295 [label="gini = 0.4974\nsamples = 56\nvalue = [30, 26]"] ;
293 -> 295 ;
296 [label="Capital Loss <= 1794.0\ngini = 0.4117\nsamples = 1832\nvalue = [531, 1301]"] ;
292 -> 296 ;
297 [label="Age <= 28.5\ngini = 0.4394\nsamples = 1608\nvalue = [524, 1084]"] ;
296 -> 297 ;
298 [label="gini = 0.4492\nsamples = 91\nvalue = [60, 31]"] ;
297 -> 298 ;
299 [label="Occupation <= 3.5\ngini = 0.4246\nsamples = 1517\nvalue = [464, 1053]"] ;
297 -> 299 ;
300 [label="Workclass <= 4.5\ngini = 0.4998\nsamples = 157\nvalue = [77, 80]"] ;
299 -> 300 ;
301 [label="Capital Loss <= 789.5\ngini = 0.4946\nsamples = 125\nvalue = [56, 69]"] ;
300 -> 301 ;
302 [label="Hours per week <= 58.0\ngini = 0.4914\nsamples = 122\nvalue = [53, 69]"] ;
301 -> 302 ;
303 [label="fnlwgt <= 92921.5\ngini = 0.4968\nsamples = 113\nvalue = [52, 61]"] ;
302 -> 303 ;
304 [label="gini = 0.2975\nsamples = 11\nvalue = [2, 9]"] ;
303 -> 304 ;
305 [label="Occupation <= 0.5\ngini = 0.4998\nsamples = 102\nvalue = [50, 52]"] ;
303 -> 305 ;
306 [label="gini = 0.4012\nsamples = 18\nvalue = [13, 5]"] ;
305 -> 306 ;
307 [label="gini = 0.4929\nsamples = 84\nvalue = [37, 47]"] ;
305 -> 307 ;
308 [label="gini = 0.1975\nsamples = 9\nvalue = [1, 8]"] ;
302 -> 308 ;
309 [label="gini = 0.0\nsamples = 3\nvalue = [3, 0]"] ;
301 -> 309 ;
310 [label="gini = 0.4512\nsamples = 32\nvalue = [21, 11]"] ;
300 -> 310 ;
311 [label="Capital Gain <= 3120.0\ngini = 0.4072\nsamples = 1360\nvalue = [387, 973]"] ;
299 -> 311 ;
312 [label="Education <= 9.5\ngini = 0.3996\nsamples = 1337\nvalue = [369, 968]"] ;
311 -> 312 ;
313 [label="Workclass <= 5.5\ngini = 0.4364\nsamples = 833\nvalue = [268, 565]"] ;
312 -> 313 ;
314 [label="Hours per week <= 41.5\ngini = 0.4206\nsamples = 705\nvalue = [212, 493]"] ;
313 -> 314 ;
315 [label="Occupation <= 4.5\ngini = 0.463\nsamples = 338\nvalue = [123, 215]"] ;
314 -> 315 ;
316 [label="Country <= 40.0\ngini = 0.3905\nsamples = 109\nvalue = [29, 80]"] ;
315 -> 316 ;
317 [label="fnlwgt <= 230254.0\ngini = 0.3841\nsamples = 108\nvalue = [28, 80]"] ;
316 -> 317 ;
318 [label="gini = 0.4181\nsamples = 84\nvalue = [25, 59]"] ;
317 -> 318 ;
319 [label="gini = 0.2188\nsamples = 24\nvalue = [3, 21]"] ;
317 -> 319 ;
320 [label="gini = 0.0\nsamples = 1\nvalue = [1, 0]"] ;
316 -> 320 ;
321 [label="Occupation <= 9.0\ngini = 0.484\nsamples = 229\nvalue = [94, 135]"] ;
315 -> 321 ;
322 [label="gini = 0.42\nsamples = 30\nvalue = [21, 9]"] ;
321 -> 322 ;
323 [label="Occupation <= 13.5\ngini = 0.4645\nsamples = 199\nvalue = [73, 126]"] ;
321 -> 323 ;
324 [label="Age <= 59.5\ngini = 0.4564\nsamples = 193\nvalue = [68, 125]"] ;
323 -> 324 ;
325 [label="Country <= 24.5\ngini = 0.4456\nsamples = 185\nvalue = [62, 123]"] ;
324 -> 325 ;
326 [label="gini = 0.4592\nsamples = 14\nvalue = [9, 5]"] ;
325 -> 326 ;
327 [label="fnlwgt <= 113098.5\ngini = 0.4278\nsamples = 171\nvalue = [53, 118]"] ;
325 -> 327 ;
328 [label="gini = 0.4983\nsamples = 34\nvalue = [16, 18]"] ;
327 -> 328 ;
329 [label="Age <= 32.5\ngini = 0.3943\nsamples = 137\nvalue = [37, 100]"] ;
327 -> 329 ;
330 [label="gini = 0.487\nsamples = 31\nvalue = [13, 18]"] ;
329 -> 330 ;
331 [label="Hours per week <= 36.5\ngini = 0.3503\nsamples = 106\nvalue = [24, 82]"] ;
329 -> 331 ;
332 [label="gini = 0.4898\nsamples = 7\nvalue = [4, 3]"] ;
331 -> 332 ;
333 [label="gini = 0.3224\nsamples = 99\nvalue = [20, 79]"] ;
331 -> 333 ;
334 [label="gini = 0.375\nsamples = 8\nvalue = [6, 2]"] ;
324 -> 334 ;
335 [label="gini = 0.2778\nsamples = 6\nvalue = [5, 1]"] ;
323 -> 335 ;
336 [label="Age <= 36.5\ngini = 0.3674\nsamples = 367\nvalue = [89, 278]"] ;
314 -> 336 ;
337 [label="Occupation <= 6.5\ngini = 0.4425\nsamples = 118\nvalue = [39, 79]"] ;
336 -> 337 ;
338 [label="gini = 0.3403\nsamples = 46\nvalue = [10, 36]"] ;
337 -> 338 ;
339 [label="gini = 0.4811\nsamples = 72\nvalue = [29, 43]"] ;
337 -> 339 ;
340 [label="Hours per week <= 50.5\ngini = 0.321\nsamples = 249\nvalue = [50, 199]"] ;
336 -> 340 ;
341 [label="fnlwgt <= 417854.0\ngini = 0.2305\nsamples = 158\nvalue = [21, 137]"] ;
340 -> 341 ;
342 [label="Country <= 1.0\ngini = 0.2223\nsamples = 157\nvalue = [20, 137]"] ;
341 -> 342 ;
343 [label="gini = 0.0\nsamples = 1\nvalue = [1, 0]"] ;
342 -> 343 ;
344 [label="Age <= 81.5\ngini = 0.2139\nsamples = 156\nvalue = [19, 137]"] ;
342 -> 344 ;
345 [label="Workclass <= 3.0\ngini = 0.2053\nsamples = 155\nvalue = [18, 137]"] ;
344 -> 345 ;
346 [label="gini = 0.3457\nsamples = 27\nvalue = [6, 21]"] ;
345 -> 346 ;
347 [label="fnlwgt <= 77008.0\ngini = 0.1699\nsamples = 128\nvalue = [12, 116]"] ;
345 -> 347 ;
348 [label="gini = 0.355\nsamples = 13\nvalue = [3, 10]"] ;
347 -> 348 ;
349 [label="Age <= 41.5\ngini = 0.1443\nsamples = 115\nvalue = [9, 106]"] ;
347 -> 349 ;
350 [label="gini = 0.2235\nsamples = 39\nvalue = [5, 34]"] ;
349 -> 350 ;
351 [label="gini = 0.0997\nsamples = 76\nvalue = [4, 72]"] ;
349 -> 351 ;
352 [label="gini = 0.0\nsamples = 1\nvalue = [1, 0]"] ;
344 -> 352 ;
353 [label="gini = 0.0\nsamples = 1\nvalue = [1, 0]"] ;
341 -> 353 ;
354 [label="gini = 0.4342\nsamples = 91\nvalue = [29, 62]"] ;
340 -> 354 ;
355 [label="Hours per week <= 76.0\ngini = 0.4922\nsamples = 128\nvalue = [56, 72]"] ;
313 -> 355 ;
356 [label="Hours per week <= 39.0\ngini = 0.4884\nsamples = 125\nvalue = [53, 72]"] ;
355 -> 356 ;
357 [label="gini = 0.375\nsamples = 8\nvalue = [6, 2]"] ;
356 -> 357 ;
358 [label="Age <= 40.5\ngini = 0.4807\nsamples = 117\nvalue = [47, 70]"] ;
356 -> 358 ;
359 [label="gini = 0.4991\nsamples = 46\nvalue = [24, 22]"] ;
358 -> 359 ;
360 [label="gini = 0.438\nsamples = 71\nvalue = [23, 48]"] ;
358 -> 360 ;
361 [label="gini = 0.0\nsamples = 3\nvalue = [3, 0]"] ;
355 -> 361 ;
362 [label="Age <= 61.5\ngini = 0.3205\nsamples = 504\nvalue = [101, 403]"] ;
312 -> 362 ;
363 [label="Workclass <= 1.5\ngini = 0.3073\nsamples = 480\nvalue = [91, 389]"] ;
362 -> 363 ;
364 [label="gini = 0.0\nsamples = 25\nvalue = [0, 25]"] ;
363 -> 364 ;
365 [label="Age <= 31.5\ngini = 0.32\nsamples = 455\nvalue = [91, 364]"] ;
363 -> 365 ;
366 [label="gini = 0.4875\nsamples = 19\nvalue = [8, 11]"] ;
365 -> 366 ;
367 [label="Education <= 13.0\ngini = 0.3083\nsamples = 436\nvalue = [83, 353]"] ;
365 -> 367 ;
368 [label="fnlwgt <= 31688.0\ngini = 0.336\nsamples = 351\nvalue = [75, 276]"] ;
367 -> 368 ;
369 [label="gini = 0.0\nsamples = 2\nvalue = [2, 0]"] ;
368 -> 369 ;
370 [label="fnlwgt <= 129493.0\ngini = 0.3308\nsamples = 349\nvalue = [73, 276]"] ;
368 -> 370 ;
371 [label="fnlwgt <= 46374.0\ngini = 0.2501\nsamples = 116\nvalue = [17, 99]"] ;
370 -> 371 ;
372 [label="gini = 0.48\nsamples = 10\nvalue = [4, 6]"] ;
371 -> 372 ;
373 [label="Age <= 35.5\ngini = 0.2152\nsamples = 106\nvalue = [13, 93]"] ;
371 -> 373 ;
374 [label="gini = 0.48\nsamples = 10\nvalue = [4, 6]"] ;
373 -> 374 ;
375 [label="gini = 0.1699\nsamples = 96\nvalue = [9, 87]"] ;
373 -> 375 ;
376 [label="fnlwgt <= 133585.0\ngini = 0.3652\nsamples = 233\nvalue = [56, 177]"] ;
370 -> 376 ;
377 [label="gini = 0.0\nsamples = 3\nvalue = [3, 0]"] ;
376 -> 377 ;
378 [label="Occupation <= 5.5\ngini = 0.3547\nsamples = 230\nvalue = [53, 177]"] ;
376 -> 378 ;
379 [label="gini = 0.242\nsamples = 71\nvalue = [10, 61]"] ;
378 -> 379 ;
380 [label="Occupation <= 9.0\ngini = 0.3946\nsamples = 159\nvalue = [43, 116]"] ;
378 -> 380 ;
381 [label="gini = 0.0\nsamples = 3\nvalue = [3, 0]"] ;
380 -> 381 ;
382 [label="Hours per week <= 67.5\ngini = 0.3813\nsamples = 156\nvalue = [40, 116]"] ;
380 -> 382 ;
383 [label="Age <= 58.5\ngini = 0.3717\nsamples = 154\nvalue = [38, 116]"] ;
382 -> 383 ;
384 [label="gini = 0.3533\nsamples = 144\nvalue = [33, 111]"] ;
383 -> 384 ;
385 [label="gini = 0.5\nsamples = 10\nvalue = [5, 5]"] ;
383 -> 385 ;
386 [label="gini = 0.0\nsamples = 2\nvalue = [2, 0]"] ;
382 -> 386 ;
387 [label="gini = 0.1705\nsamples = 85\nvalue = [8, 77]"] ;
367 -> 387 ;
388 [label="gini = 0.4861\nsamples = 24\nvalue = [10, 14]"] ;
362 -> 388 ;
389 [label="gini = 0.3403\nsamples = 23\nvalue = [18, 5]"] ;
311 -> 389 ;
390 [label="Workclass <= 1.5\ngini = 0.0605\nsamples = 224\nvalue = [7, 217]"] ;
296 -> 390 ;
391 [label="gini = 0.3911\nsamples = 15\nvalue = [4, 11]"] ;
390 -> 391 ;
392 [label="Capital Loss <= 1989.5\ngini = 0.0283\nsamples = 209\nvalue = [3, 206]"] ;
390 -> 392 ;
393 [label="gini = 0.0\nsamples = 173\nvalue = [0, 173]"] ;
392 -> 393 ;
394 [label="gini = 0.1528\nsamples = 36\nvalue = [3, 33]"] ;
392 -> 394 ;
395 [label="Age <= 62.5\ngini = 0.0056\nsamples = 355\nvalue = [1, 354]"] ;
291 -> 395 ;
396 [label="gini = 0.0\nsamples = 314\nvalue = [0, 314]"] ;
395 -> 396 ;
397 [label="gini = 0.0476\nsamples = 41\nvalue = [1, 40]"] ;
395 -> 397 ;
398 [label="Capital Gain <= 7073.5\ngini = 0.1796\nsamples = 11666\nvalue = [10502, 1164]"] ;
0 -> 398 [labeldistance=2.5, labelangle=-45, headlabel="False"] ;
399 [label="Relationship <= 4.5\ngini = 0.147\nsamples = 11407\nvalue = [10496, 911]"] ;
398 -> 399 ;
400 [label="Education-Num <= 12.5\ngini = 0.0903\nsamples = 10504\nvalue = [10006, 498]"] ;
399 -> 400 ;
401 [label="Capital Loss <= 2218.5\ngini = 0.047\nsamples = 8464\nvalue = [8260, 204]"] ;
400 -> 401 ;
402 [label="Hours per week <= 44.5\ngini = 0.0436\nsamples = 8429\nvalue = [8241, 188]"] ;
401 -> 402 ;
403 [label="Age <= 37.5\ngini = 0.0263\nsamples = 7064\nvalue = [6970, 94]"] ;
402 -> 403 ;
404 [label="Age <= 28.5\ngini = 0.008\nsamples = 4734\nvalue = [4715, 19]"] ;
403 -> 404 ;
405 [label="Education-Num <= 3.5\ngini = 0.0024\nsamples = 3359\nvalue = [3355, 4]"] ;
404 -> 405 ;
406 [label="gini = 0.0425\nsamples = 46\nvalue = [45, 1]"] ;
405 -> 406 ;
407 [label="Martial Status <= 4.5\ngini = 0.0018\nsamples = 3313\nvalue = [3310, 3]"] ;
405 -> 407 ;
408 [label="Education-Num <= 11.5\ngini = 0.0012\nsamples = 3221\nvalue = [3219, 2]"] ;
407 -> 408 ;
409 [label="fnlwgt <= 127800.5\ngini = 0.0006\nsamples = 3124\nvalue = [3123, 1]"] ;
408 -> 409 ;
410 [label="fnlwgt <= 127760.5\ngini = 0.0025\nsamples = 802\nvalue = [801, 1]"] ;
409 -> 410 ;
411 [label="gini = 0.0\nsamples = 800\nvalue = [800, 0]"] ;
410 -> 411 ;
412 [label="gini = 0.5\nsamples = 2\nvalue = [1, 1]"] ;
410 -> 412 ;
413 [label="gini = 0.0\nsamples = 2322\nvalue = [2322, 0]"] ;
409 -> 413 ;
414 [label="gini = 0.0204\nsamples = 97\nvalue = [96, 1]"] ;
408 -> 414 ;
415 [label="gini = 0.0215\nsamples = 92\nvalue = [91, 1]"] ;
407 -> 415 ;
416 [label="Hours per week <= 40.5\ngini = 0.0216\nsamples = 1375\nvalue = [1360, 15]"] ;
404 -> 416 ;
417 [label="Education-Num <= 9.5\ngini = 0.0191\nsamples = 1347\nvalue = [1334, 13]"] ;
416 -> 417 ;
418 [label="Age <= 32.5\ngini = 0.0073\nsamples = 822\nvalue = [819, 3]"] ;
417 -> 418 ;
419 [label="gini = 0.0\nsamples = 388\nvalue = [388, 0]"] ;
418 -> 419 ;
420 [label="Age <= 33.5\ngini = 0.0137\nsamples = 434\nvalue = [431, 3]"] ;
418 -> 420 ;
421 [label="Occupation <= 4.5\ngini = 0.0377\nsamples = 104\nvalue = [102, 2]"] ;
420 -> 421 ;
422 [label="gini = 0.0973\nsamples = 39\nvalue = [37, 2]"] ;
421 -> 422 ;
423 [label="gini = 0.0\nsamples = 65\nvalue = [65, 0]"] ;
421 -> 423 ;
424 [label="Occupation <= 9.5\ngini = 0.006\nsamples = 330\nvalue = [329, 1]"] ;
420 -> 424 ;
425 [label="gini = 0.0\nsamples = 288\nvalue = [288, 0]"] ;
424 -> 425 ;
426 [label="gini = 0.0465\nsamples = 42\nvalue = [41, 1]"] ;
424 -> 426 ;
427 [label="Hours per week <= 12.5\ngini = 0.0374\nsamples = 525\nvalue = [515, 10]"] ;
417 -> 427 ;
428 [label="gini = 0.2188\nsamples = 8\nvalue = [7, 1]"] ;
427 -> 428 ;
429 [label="Country <= 24.5\ngini = 0.0342\nsamples = 517\nvalue = [508, 9]"] ;
427 -> 429 ;
430 [label="gini = 0.1284\nsamples = 29\nvalue = [27, 2]"] ;
429 -> 430 ;
431 [label="Workclass <= 6.5\ngini = 0.0283\nsamples = 488\nvalue = [481, 7]"] ;
429 -> 431 ;
432 [label="fnlwgt <= 213496.0\ngini = 0.0217\nsamples = 455\nvalue = [450, 5]"] ;
431 -> 432 ;
433 [label="fnlwgt <= 212509.5\ngini = 0.0316\nsamples = 311\nvalue = [306, 5]"] ;
432 -> 433 ;
434 [label="fnlwgt <= 160498.0\ngini = 0.0255\nsamples = 310\nvalue = [306, 4]"] ;
433 -> 434 ;
435 [label="Age <= 36.5\ngini = 0.0105\nsamples = 189\nvalue = [188, 1]"] ;
434 -> 435 ;
436 [label="gini = 0.0\nsamples = 175\nvalue = [175, 0]"] ;
435 -> 436 ;
437 [label="gini = 0.1327\nsamples = 14\nvalue = [13, 1]"] ;
435 -> 437 ;
438 [label="fnlwgt <= 161162.0\ngini = 0.0484\nsamples = 121\nvalue = [118, 3]"] ;
434 -> 438 ;
439 [label="gini = 0.0\nsamples = 1\nvalue = [0, 1]"] ;
438 -> 439 ;
440 [label="fnlwgt <= 177766.5\ngini = 0.0328\nsamples = 120\nvalue = [118, 2]"] ;
438 -> 440 ;
441 [label="gini = 0.0832\nsamples = 46\nvalue = [44, 2]"] ;
440 -> 441 ;
442 [label="gini = 0.0\nsamples = 74\nvalue = [74, 0]"] ;
440 -> 442 ;
443 [label="gini = 0.0\nsamples = 1\nvalue = [0, 1]"] ;
433 -> 443 ;
444 [label="gini = 0.0\nsamples = 144\nvalue = [144, 0]"] ;
432 -> 444 ;
445 [label="gini = 0.1139\nsamples = 33\nvalue = [31, 2]"] ;
431 -> 445 ;
446 [label="gini = 0.1327\nsamples = 28\nvalue = [26, 2]"] ;
416 -> 446 ;
447 [label="Capital Gain <= 4718.5\ngini = 0.0623\nsamples = 2330\nvalue = [2255, 75]"] ;
403 -> 447 ;
448 [label="Occupation <= 9.5\ngini = 0.0595\nsamples = 2315\nvalue = [2244, 71]"] ;
447 -> 448 ;
449 [label="fnlwgt <= 23737.5\ngini = 0.0434\nsamples = 1848\nvalue = [1807, 41]"] ;
448 -> 449 ;
450 [label="gini = 0.3967\nsamples = 11\nvalue = [8, 3]"] ;
449 -> 450 ;
451 [label="Occupation <= 4.5\ngini = 0.0405\nsamples = 1837\nvalue = [1799, 38]"] ;
449 -> 451 ;
452 [label="Occupation <= 2.0\ngini = 0.0613\nsamples = 1105\nvalue = [1070, 35]"] ;
451 -> 452 ;
453 [label="fnlwgt <= 28311.0\ngini = 0.0205\nsamples = 675\nvalue = [668, 7]"] ;
452 -> 453 ;
454 [label="gini = 0.375\nsamples = 4\nvalue = [3, 1]"] ;
453 -> 454 ;
455 [label="Hours per week <= 43.5\ngini = 0.0177\nsamples = 671\nvalue = [665, 6]"] ;
453 -> 455 ;
456 [label="fnlwgt <= 406565.0\ngini = 0.0149\nsamples = 666\nvalue = [661, 5]"] ;
455 -> 456 ;
457 [label="Education <= 14.0\ngini = 0.0123\nsamples = 649\nvalue = [645, 4]"] ;
456 -> 457 ;
458 [label="Hours per week <= 21.0\ngini = 0.0045\nsamples = 445\nvalue = [444, 1]"] ;
457 -> 458 ;
459 [label="gini = 0.0278\nsamples = 71\nvalue = [70, 1]"] ;
458 -> 459 ;
460 [label="gini = 0.0\nsamples = 374\nvalue = [374, 0]"] ;
458 -> 460 ;
461 [label="Age <= 39.5\ngini = 0.029\nsamples = 204\nvalue = [201, 3]"] ;
457 -> 461 ;
462 [label="gini = 0.142\nsamples = 13\nvalue = [12, 1]"] ;
461 -> 462 ;
463 [label="Workclass <= 0.5\ngini = 0.0207\nsamples = 191\nvalue = [189, 2]"] ;
461 -> 463 ;
464 [label="gini = 0.074\nsamples = 26\nvalue = [25, 1]"] ;
463 -> 464 ;
465 [label="fnlwgt <= 198317.0\ngini = 0.012\nsamples = 165\nvalue = [164, 1]"] ;
463 -> 465 ;
466 [label="gini = 0.0\nsamples = 117\nvalue = [117, 0]"] ;
465 -> 466 ;
467 [label="gini = 0.0408\nsamples = 48\nvalue = [47, 1]"] ;
465 -> 467 ;
468 [label="gini = 0.1107\nsamples = 17\nvalue = [16, 1]"] ;
456 -> 468 ;
469 [label="gini = 0.32\nsamples = 5\nvalue = [4, 1]"] ;
455 -> 469 ;
470 [label="fnlwgt <= 328728.0\ngini = 0.1218\nsamples = 430\nvalue = [402, 28]"] ;
452 -> 470 ;
471 [label="Education-Num <= 10.5\ngini = 0.1049\nsamples = 396\nvalue = [374, 22]"] ;
470 -> 471 ;
472 [label="fnlwgt <= 200383.0\ngini = 0.0851\nsamples = 337\nvalue = [322, 15]"] ;
471 -> 472 ;
473 [label="fnlwgt <= 199965.5\ngini = 0.1157\nsamples = 227\nvalue = [213, 14]"] ;
472 -> 473 ;
474 [label="Hours per week <= 11.0\ngini = 0.1084\nsamples = 226\nvalue = [213, 13]"] ;
473 -> 474 ;
475 [label="gini = 0.375\nsamples = 4\nvalue = [3, 1]"] ;
474 -> 475 ;
476 [label="fnlwgt <= 94860.0\ngini = 0.1023\nsamples = 222\nvalue = [210, 12]"] ;
474 -> 476 ;
477 [label="gini = 0.1738\nsamples = 52\nvalue = [47, 5]"] ;
476 -> 477 ;
478 [label="fnlwgt <= 124665.5\ngini = 0.079\nsamples = 170\nvalue = [163, 7]"] ;
476 -> 478 ;
479 [label="gini = 0.0\nsamples = 49\nvalue = [49, 0]"] ;
478 -> 479 ;
480 [label="fnlwgt <= 125312.5\ngini = 0.109\nsamples = 121\nvalue = [114, 7]"] ;
478 -> 480 ;
481 [label="gini = 0.0\nsamples = 1\nvalue = [0, 1]"] ;
480 -> 481 ;
482 [label="gini = 0.095\nsamples = 120\nvalue = [114, 6]"] ;
480 -> 482 ;
483 [label="gini = 0.0\nsamples = 1\nvalue = [0, 1]"] ;
473 -> 483 ;
484 [label="fnlwgt <= 258291.5\ngini = 0.018\nsamples = 110\nvalue = [109, 1]"] ;
472 -> 484 ;
485 [label="gini = 0.0\nsamples = 70\nvalue = [70, 0]"] ;
484 -> 485 ;
486 [label="gini = 0.0487\nsamples = 40\nvalue = [39, 1]"] ;
484 -> 486 ;
487 [label="gini = 0.2091\nsamples = 59\nvalue = [52, 7]"] ;
471 -> 487 ;
488 [label="gini = 0.2907\nsamples = 34\nvalue = [28, 6]"] ;
470 -> 488 ;
489 [label="Race <= 1.5\ngini = 0.0082\nsamples = 732\nvalue = [729, 3]"] ;
451 -> 489 ;
490 [label="gini = 0.0907\nsamples = 21\nvalue = [20, 1]"] ;
489 -> 490 ;
491 [label="fnlwgt <= 277272.0\ngini = 0.0056\nsamples = 711\nvalue = [709, 2]"] ;
489 -> 491 ;
492 [label="gini = 0.0\nsamples = 611\nvalue = [611, 0]"] ;
491 -> 492 ;
493 [label="fnlwgt <= 279261.5\ngini = 0.0392\nsamples = 100\nvalue = [98, 2]"] ;
491 -> 493 ;
494 [label="gini = 0.0\nsamples = 1\nvalue = [0, 1]"] ;
493 -> 494 ;
495 [label="gini = 0.02\nsamples = 99\nvalue = [98, 1]"] ;
493 -> 495 ;
496 [label="Sex <= 0.5\ngini = 0.1202\nsamples = 467\nvalue = [437, 30]"] ;
448 -> 496 ;
497 [label="fnlwgt <= 196690.5\ngini = 0.07\nsamples = 303\nvalue = [292, 11]"] ;
496 -> 497 ;
498 [label="fnlwgt <= 196431.0\ngini = 0.1075\nsamples = 193\nvalue = [182, 11]"] ;
497 -> 498 ;
499 [label="Race <= 1.5\ngini = 0.0987\nsamples = 192\nvalue = [182, 10]"] ;
498 -> 499 ;
500 [label="gini = 0.2604\nsamples = 13\nvalue = [11, 2]"] ;
499 -> 500 ;
501 [label="Education <= 7.5\ngini = 0.0854\nsamples = 179\nvalue = [171, 8]"] ;
499 -> 501 ;
502 [label="gini = 0.0\nsamples = 37\nvalue = [37, 0]"] ;
501 -> 502 ;
503 [label="fnlwgt <= 162803.5\ngini = 0.1063\nsamples = 142\nvalue = [134, 8]"] ;
501 -> 503 ;
504 [label="Age <= 52.5\ngini = 0.0768\nsamples = 100\nvalue = [96, 4]"] ;
503 -> 504 ;
505 [label="gini = 0.1207\nsamples = 62\nvalue = [58, 4]"] ;
504 -> 505 ;
506 [label="gini = 0.0\nsamples = 38\nvalue = [38, 0]"] ;
504 -> 506 ;
507 [label="gini = 0.1723\nsamples = 42\nvalue = [38, 4]"] ;
503 -> 507 ;
508 [label="gini = 0.0\nsamples = 1\nvalue = [0, 1]"] ;
498 -> 508 ;
509 [label="gini = 0.0\nsamples = 110\nvalue = [110, 0]"] ;
497 -> 509 ;
510 [label="Martial Status <= 5.5\ngini = 0.2049\nsamples = 164\nvalue = [145, 19]"] ;
496 -> 510 ;
511 [label="Occupation <= 11.5\ngini = 0.1528\nsamples = 144\nvalue = [132, 12]"] ;
510 -> 511 ;
512 [label="gini = 0.2726\nsamples = 43\nvalue = [36, 7]"] ;
511 -> 512 ;
513 [label="Country <= 1.0\ngini = 0.0941\nsamples = 101\nvalue = [96, 5]"] ;
511 -> 513 ;
514 [label="gini = 0.5\nsamples = 2\nvalue = [1, 1]"] ;
513 -> 514 ;
515 [label="gini = 0.0775\nsamples = 99\nvalue = [95, 4]"] ;
513 -> 515 ;
516 [label="gini = 0.455\nsamples = 20\nvalue = [13, 7]"] ;
510 -> 516 ;
517 [label="gini = 0.3911\nsamples = 15\nvalue = [11, 4]"] ;
447 -> 517 ;
518 [label="Age <= 38.5\ngini = 0.1282\nsamples = 1365\nvalue = [1271, 94]"] ;
402 -> 518 ;
519 [label="Age <= 26.5\ngini = 0.0746\nsamples = 876\nvalue = [842, 34]"] ;
518 -> 519 ;
520 [label="Country <= 3.0\ngini = 0.0179\nsamples = 332\nvalue = [329, 3]"] ;
519 -> 520 ;
521 [label="gini = 0.2449\nsamples = 7\nvalue = [6, 1]"] ;
520 -> 521 ;
522 [label="Martial Status <= 4.5\ngini = 0.0122\nsamples = 325\nvalue = [323, 2]"] ;
520 -> 522 ;
523 [label="Martial Status <= 2.5\ngini = 0.0063\nsamples = 317\nvalue = [316, 1]"] ;
522 -> 523 ;
524 [label="gini = 0.0768\nsamples = 25\nvalue = [24, 1]"] ;
523 -> 524 ;
525 [label="gini = 0.0\nsamples = 292\nvalue = [292, 0]"] ;
523 -> 525 ;
526 [label="gini = 0.2188\nsamples = 8\nvalue = [7, 1]"] ;
522 -> 526 ;
527 [label="Education-Num <= 10.5\ngini = 0.1075\nsamples = 544\nvalue = [513, 31]"] ;
519 -> 527 ;
528 [label="Workclass <= 4.5\ngini = 0.0868\nsamples = 462\nvalue = [441, 21]"] ;
527 -> 528 ;
529 [label="fnlwgt <= 206193.5\ngini = 0.0599\nsamples = 388\nvalue = [376, 12]"] ;
528 -> 529 ;
530 [label="fnlwgt <= 205595.5\ngini = 0.0922\nsamples = 227\nvalue = [216, 11]"] ;
529 -> 530 ;
531 [label="Education-Num <= 5.5\ngini = 0.0846\nsamples = 226\nvalue = [216, 10]"] ;
530 -> 531 ;
532 [label="gini = 0.2975\nsamples = 11\nvalue = [9, 2]"] ;
531 -> 532 ;
533 [label="Occupation <= 7.5\ngini = 0.0716\nsamples = 215\nvalue = [207, 8]"] ;
531 -> 533 ;
534 [label="Race <= 0.5\ngini = 0.0308\nsamples = 128\nvalue = [126, 2]"] ;
533 -> 534 ;
535 [label="gini = 0.4444\nsamples = 3\nvalue = [2, 1]"] ;
534 -> 535 ;
536 [label="Education <= 6.5\ngini = 0.0159\nsamples = 125\nvalue = [124, 1]"] ;
534 -> 536 ;
537 [label="gini = 0.1327\nsamples = 14\nvalue = [13, 1]"] ;
536 -> 537 ;
538 [label="gini = 0.0\nsamples = 111\nvalue = [111, 0]"] ;
536 -> 538 ;
539 [label="gini = 0.1284\nsamples = 87\nvalue = [81, 6]"] ;
533 -> 539 ;
540 [label="gini = 0.0\nsamples = 1\nvalue = [0, 1]"] ;
530 -> 540 ;
541 [label="Sex <= 0.5\ngini = 0.0123\nsamples = 161\nvalue = [160, 1]"] ;
529 -> 541 ;
542 [label="gini = 0.0487\nsamples = 40\nvalue = [39, 1]"] ;
541 -> 542 ;
543 [label="gini = 0.0\nsamples = 121\nvalue = [121, 0]"] ;
541 -> 543 ;
544 [label="gini = 0.2137\nsamples = 74\nvalue = [65, 9]"] ;
528 -> 544 ;
545 [label="gini = 0.2142\nsamples = 82\nvalue = [72, 10]"] ;
527 -> 545 ;
546 [label="Capital Gain <= 4180.5\ngini = 0.2153\nsamples = 489\nvalue = [429, 60]"] ;
518 -> 546 ;
547 [label="Sex <= 0.5\ngini = 0.205\nsamples = 483\nvalue = [427, 56]"] ;
546 -> 547 ;
548 [label="Occupation <= 10.5\ngini = 0.1234\nsamples = 227\nvalue = [212, 15]"] ;
547 -> 548 ;
549 [label="Occupation <= 2.0\ngini = 0.0898\nsamples = 191\nvalue = [182, 9]"] ;
548 -> 549 ;
550 [label="gini = 0.1913\nsamples = 56\nvalue = [50, 6]"] ;
549 -> 550 ;
551 [label="fnlwgt <= 371244.5\ngini = 0.0435\nsamples = 135\nvalue = [132, 3]"] ;
549 -> 551 ;
552 [label="Country <= 17.5\ngini = 0.0303\nsamples = 130\nvalue = [128, 2]"] ;
551 -> 552 ;
553 [label="gini = 0.32\nsamples = 5\nvalue = [4, 1]"] ;
552 -> 553 ;
554 [label="Race <= 2.5\ngini = 0.0159\nsamples = 125\nvalue = [124, 1]"] ;
552 -> 554 ;
555 [label="gini = 0.0768\nsamples = 25\nvalue = [24, 1]"] ;
554 -> 555 ;
556 [label="gini = 0.0\nsamples = 100\nvalue = [100, 0]"] ;
554 -> 556 ;
557 [label="gini = 0.32\nsamples = 5\nvalue = [4, 1]"] ;
551 -> 557 ;
558 [label="gini = 0.2778\nsamples = 36\nvalue = [30, 6]"] ;
548 -> 558 ;
559 [label="fnlwgt <= 411633.0\ngini = 0.269\nsamples = 256\nvalue = [215, 41]"] ;
547 -> 559 ;
560 [label="Education <= 7.5\ngini = 0.2608\nsamples = 253\nvalue = [214, 39]"] ;
559 -> 560 ;
561 [label="gini = 0.1172\nsamples = 48\nvalue = [45, 3]"] ;
560 -> 561 ;
562 [label="Martial Status <= 4.5\ngini = 0.2895\nsamples = 205\nvalue = [169, 36]"] ;
560 -> 562 ;
563 [label="Martial Status <= 2.5\ngini = 0.2667\nsamples = 183\nvalue = [154, 29]"] ;
562 -> 563 ;
564 [label="Age <= 40.5\ngini = 0.3314\nsamples = 124\nvalue = [98, 26]"] ;
563 -> 564 ;
565 [label="gini = 0.4717\nsamples = 21\nvalue = [13, 8]"] ;
564 -> 565 ;
566 [label="Workclass <= 6.5\ngini = 0.2884\nsamples = 103\nvalue = [85, 18]"] ;
564 -> 566 ;
567 [label="fnlwgt <= 214329.5\ngini = 0.2778\nsamples = 102\nvalue = [85, 17]"] ;
566 -> 567 ;
568 [label="gini = 0.2112\nsamples = 75\nvalue = [66, 9]"] ;
567 -> 568 ;
569 [label="gini = 0.417\nsamples = 27\nvalue = [19, 8]"] ;
567 -> 569 ;
570 [label="gini = 0.0\nsamples = 1\nvalue = [0, 1]"] ;
566 -> 570 ;
571 [label="gini = 0.0965\nsamples = 59\nvalue = [56, 3]"] ;
563 -> 571 ;
572 [label="gini = 0.4339\nsamples = 22\nvalue = [15, 7]"] ;
562 -> 572 ;
573 [label="gini = 0.4444\nsamples = 3\nvalue = [1, 2]"] ;
559 -> 573 ;
574 [label="gini = 0.4444\nsamples = 6\nvalue = [2, 4]"] ;
546 -> 574 ;
575 [label="gini = 0.4963\nsamples = 35\nvalue = [19, 16]"] ;
401 -> 575 ;
576 [label="Hours per week <= 43.5\ngini = 0.2467\nsamples = 2040\nvalue = [1746, 294]"] ;
400 -> 576 ;
577 [label="Capital Loss <= 2218.5\ngini = 0.1538\nsamples = 1394\nvalue = [1277, 117]"] ;
576 -> 577 ;
578 [label="Age <= 42.5\ngini = 0.1418\nsamples = 1380\nvalue = [1274, 106]"] ;
577 -> 578 ;
579 [label="Capital Gain <= 4668.5\ngini = 0.079\nsamples = 995\nvalue = [954, 41]"] ;
578 -> 579 ;
580 [label="Education-Num <= 15.5\ngini = 0.074\nsamples = 987\nvalue = [949, 38]"] ;
579 -> 580 ;
581 [label="Age <= 29.5\ngini = 0.0676\nsamples = 970\nvalue = [936, 34]"] ;
580 -> 581 ;
582 [label="Martial Status <= 4.5\ngini = 0.0319\nsamples = 556\nvalue = [547, 9]"] ;
581 -> 582 ;
583 [label="Capital Loss <= 1486.0\ngini = 0.0285\nsamples = 553\nvalue = [545, 8]"] ;
582 -> 583 ;
584 [label="fnlwgt <= 41011.0\ngini = 0.0252\nsamples = 548\nvalue = [541, 7]"] ;
583 -> 584 ;
585 [label="gini = 0.18\nsamples = 20\nvalue = [18, 2]"] ;
584 -> 585 ;
586 [label="Martial Status <= 2.5\ngini = 0.0188\nsamples = 528\nvalue = [523, 5]"] ;
584 -> 586 ;
587 [label="gini = 0.142\nsamples = 13\nvalue = [12, 1]"] ;
586 -> 587 ;
588 [label="Education-Num <= 13.5\ngini = 0.0154\nsamples = 515\nvalue = [511, 4]"] ;
586 -> 588 ;
589 [label="Relationship <= 3.5\ngini = 0.0088\nsamples = 454\nvalue = [452, 2]"] ;
588 -> 589 ;
590 [label="fnlwgt <= 324041.5\ngini = 0.0046\nsamples = 436\nvalue = [435, 1]"] ;
589 -> 590 ;
591 [label="gini = 0.0\nsamples = 373\nvalue = [373, 0]"] ;
590 -> 591 ;
592 [label="gini = 0.0312\nsamples = 63\nvalue = [62, 1]"] ;
590 -> 592 ;
593 [label="gini = 0.1049\nsamples = 18\nvalue = [17, 1]"] ;
589 -> 593 ;
594 [label="gini = 0.0634\nsamples = 61\nvalue = [59, 2]"] ;
588 -> 594 ;
595 [label="gini = 0.32\nsamples = 5\nvalue = [4, 1]"] ;
583 -> 595 ;
596 [label="gini = 0.4444\nsamples = 3\nvalue = [2, 1]"] ;
582 -> 596 ;
597 [label="Hours per week <= 6.5\ngini = 0.1135\nsamples = 414\nvalue = [389, 25]"] ;
581 -> 597 ;
598 [label="gini = 0.0\nsamples = 1\nvalue = [0, 1]"] ;
597 -> 598 ;
599 [label="fnlwgt <= 164893.5\ngini = 0.1095\nsamples = 413\nvalue = [389, 24]"] ;
597 -> 599 ;
600 [label="Sex <= 0.5\ngini = 0.0432\nsamples = 181\nvalue = [177, 4]"] ;
599 -> 600 ;
601 [label="gini = 0.0\nsamples = 99\nvalue = [99, 0]"] ;
600 -> 601 ;
602 [label="gini = 0.0928\nsamples = 82\nvalue = [78, 4]"] ;
600 -> 602 ;
603 [label="fnlwgt <= 165272.0\ngini = 0.1576\nsamples = 232\nvalue = [212, 20]"] ;
599 -> 603 ;
604 [label="gini = 0.0\nsamples = 1\nvalue = [0, 1]"] ;
603 -> 604 ;
605 [label="Relationship <= 3.5\ngini = 0.151\nsamples = 231\nvalue = [212, 19]"] ;
603 -> 605 ;
606 [label="Education-Num <= 14.5\ngini = 0.1783\nsamples = 192\nvalue = [173, 19]"] ;
605 -> 606 ;
607 [label="Hours per week <= 33.5\ngini = 0.1715\nsamples = 190\nvalue = [172, 18]"] ;
606 -> 607 ;
608 [label="gini = 0.0\nsamples = 26\nvalue = [26, 0]"] ;
607 -> 608 ;
609 [label="Martial Status <= 3.0\ngini = 0.1954\nsamples = 164\nvalue = [146, 18]"] ;
607 -> 609 ;
610 [label="gini = 0.2907\nsamples = 34\nvalue = [28, 6]"] ;
609 -> 610 ;
611 [label="fnlwgt <= 409130.0\ngini = 0.1676\nsamples = 130\nvalue = [118, 12]"] ;
609 -> 611 ;
612 [label="Relationship <= 1.5\ngini = 0.1494\nsamples = 123\nvalue = [113, 10]"] ;
611 -> 612 ;
613 [label="gini = 0.1816\nsamples = 99\nvalue = [89, 10]"] ;
612 -> 613 ;
614 [label="gini = 0.0\nsamples = 24\nvalue = [24, 0]"] ;
612 -> 614 ;
615 [label="gini = 0.4082\nsamples = 7\nvalue = [5, 2]"] ;
611 -> 615 ;
616 [label="gini = 0.5\nsamples = 2\nvalue = [1, 1]"] ;
606 -> 616 ;
617 [label="gini = 0.0\nsamples = 39\nvalue = [39, 0]"] ;
605 -> 617 ;
618 [label="gini = 0.3599\nsamples = 17\nvalue = [13, 4]"] ;
580 -> 618 ;
619 [label="gini = 0.4688\nsamples = 8\nvalue = [5, 3]"] ;
579 -> 619 ;
620 [label="Education-Num <= 15.5\ngini = 0.2807\nsamples = 385\nvalue = [320, 65]"] ;
578 -> 620 ;
621 [label="Hours per week <= 39.5\ngini = 0.2618\nsamples = 368\nvalue = [311, 57]"] ;
620 -> 621 ;
622 [label="Race <= 1.5\ngini = 0.1225\nsamples = 122\nvalue = [114, 8]"] ;
621 -> 622 ;
623 [label="gini = 0.5\nsamples = 4\nvalue = [2, 2]"] ;
622 -> 623 ;
624 [label="Capital Gain <= 3566.5\ngini = 0.0965\nsamples = 118\nvalue = [112, 6]"] ;
622 -> 624 ;
625 [label="Martial Status <= 3.5\ngini = 0.0825\nsamples = 116\nvalue = [111, 5]"] ;
624 -> 625 ;
626 [label="gini = 0.0\nsamples = 49\nvalue = [49, 0]"] ;
625 -> 626 ;
627 [label="gini = 0.1381\nsamples = 67\nvalue = [62, 5]"] ;
625 -> 627 ;
628 [label="gini = 0.5\nsamples = 2\nvalue = [1, 1]"] ;
624 -> 628 ;
629 [label="Relationship <= 1.5\ngini = 0.319\nsamples = 246\nvalue = [197, 49]"] ;
621 -> 629 ;
630 [label="fnlwgt <= 37440.0\ngini = 0.3656\nsamples = 162\nvalue = [123, 39]"] ;
629 -> 630 ;
631 [label="gini = 0.375\nsamples = 4\nvalue = [1, 3]"] ;
630 -> 631 ;
632 [label="Age <= 63.5\ngini = 0.3519\nsamples = 158\nvalue = [122, 36]"] ;
630 -> 632 ;
633 [label="Age <= 59.5\ngini = 0.3682\nsamples = 148\nvalue = [112, 36]"] ;
632 -> 633 ;
634 [label="Occupation <= 3.5\ngini = 0.3392\nsamples = 134\nvalue = [105, 29]"] ;
633 -> 634 ;
635 [label="gini = 0.095\nsamples = 20\nvalue = [19, 1]"] ;
634 -> 635 ;
636 [label="fnlwgt <= 144328.0\ngini = 0.3706\nsamples = 114\nvalue = [86, 28]"] ;
634 -> 636 ;
637 [label="gini = 0.2285\nsamples = 38\nvalue = [33, 5]"] ;
636 -> 637 ;
638 [label="gini = 0.4221\nsamples = 76\nvalue = [53, 23]"] ;
636 -> 638 ;
639 [label="gini = 0.5\nsamples = 14\nvalue = [7, 7]"] ;
633 -> 639 ;
640 [label="gini = 0.0\nsamples = 10\nvalue = [10, 0]"] ;
632 -> 640 ;
641 [label="gini = 0.2098\nsamples = 84\nvalue = [74, 10]"] ;
629 -> 641 ;
642 [label="gini = 0.4983\nsamples = 17\nvalue = [9, 8]"] ;
620 -> 642 ;
643 [label="gini = 0.3367\nsamples = 14\nvalue = [3, 11]"] ;
577 -> 643 ;
644 [label="Age <= 27.5\ngini = 0.3978\nsamples = 646\nvalue = [469, 177]"] ;
576 -> 644 ;
645 [label="Education <= 13.0\ngini = 0.048\nsamples = 122\nvalue = [119, 3]"] ;
644 -> 645 ;
646 [label="Hours per week <= 58.0\ngini = 0.0325\nsamples = 121\nvalue = [119, 2]"] ;
645 -> 646 ;
647 [label="gini = 0.0\nsamples = 89\nvalue = [89, 0]"] ;
646 -> 647 ;
648 [label="gini = 0.1172\nsamples = 32\nvalue = [30, 2]"] ;
646 -> 648 ;
649 [label="gini = 0.0\nsamples = 1\nvalue = [0, 1]"] ;
645 -> 649 ;
650 [label="Education-Num <= 14.5\ngini = 0.4436\nsamples = 524\nvalue = [350, 174]"] ;
644 -> 650 ;
651 [label="Capital Loss <= 2391.5\ngini = 0.4148\nsamples = 453\nvalue = [320, 133]"] ;
650 -> 651 ;
652 [label="Sex <= 0.5\ngini = 0.4068\nsamples = 447\nvalue = [320, 127]"] ;
651 -> 652 ;
653 [label="Capital Gain <= 4718.5\ngini = 0.327\nsamples = 204\nvalue = [162, 42]"] ;
652 -> 653 ;
654 [label="Occupation <= 9.0\ngini = 0.3011\nsamples = 195\nvalue = [159, 36]"] ;
653 -> 654 ;
655 [label="gini = 0.4066\nsamples = 81\nvalue = [58, 23]"] ;
654 -> 655 ;
656 [label="Workclass <= 1.5\ngini = 0.2021\nsamples = 114\nvalue = [101, 13]"] ;
654 -> 656 ;
657 [label="gini = 0.0\nsamples = 2\nvalue = [0, 2]"] ;
656 -> 657 ;
658 [label="fnlwgt <= 372516.0\ngini = 0.1771\nsamples = 112\nvalue = [101, 11]"] ;
656 -> 658 ;
659 [label="fnlwgt <= 180106.5\ngini = 0.1639\nsamples = 111\nvalue = [101, 10]"] ;
658 -> 659 ;
660 [label="gini = 0.0644\nsamples = 60\nvalue = [58, 2]"] ;
659 -> 660 ;
661 [label="gini = 0.2645\nsamples = 51\nvalue = [43, 8]"] ;
659 -> 661 ;
662 [label="gini = 0.0\nsamples = 1\nvalue = [0, 1]"] ;
658 -> 662 ;
663 [label="gini = 0.4444\nsamples = 9\nvalue = [3, 6]"] ;
653 -> 663 ;
664 [label="Workclass <= 5.5\ngini = 0.4549\nsamples = 243\nvalue = [158, 85]"] ;
652 -> 664 ;
665 [label="Age <= 37.5\ngini = 0.4741\nsamples = 202\nvalue = [124, 78]"] ;
664 -> 665 ;
666 [label="gini = 0.4107\nsamples = 97\nvalue = [69, 28]"] ;
665 -> 666 ;
667 [label="Occupation <= 3.5\ngini = 0.4989\nsamples = 105\nvalue = [55, 50]"] ;
665 -> 667 ;
668 [label="gini = 0.2188\nsamples = 8\nvalue = [7, 1]"] ;
667 -> 668 ;
669 [label="gini = 0.4999\nsamples = 97\nvalue = [48, 49]"] ;
667 -> 669 ;
670 [label="gini = 0.2832\nsamples = 41\nvalue = [34, 7]"] ;
664 -> 670 ;
671 [label="gini = 0.0\nsamples = 6\nvalue = [0, 6]"] ;
651 -> 671 ;
672 [label="gini = 0.488\nsamples = 71\nvalue = [30, 41]"] ;
650 -> 672 ;
673 [label="Education-Num <= 10.5\ngini = 0.4964\nsamples = 903\nvalue = [490, 413]"] ;
399 -> 673 ;
674 [label="Occupation <= 4.5\ngini = 0.4378\nsamples = 550\nvalue = [372, 178]"] ;
673 -> 674 ;
675 [label="Age <= 32.5\ngini = 0.4931\nsamples = 256\nvalue = [143, 113]"] ;
674 -> 675 ;
676 [label="gini = 0.3473\nsamples = 76\nvalue = [59, 17]"] ;
675 -> 676 ;
677 [label="Occupation <= 0.5\ngini = 0.4978\nsamples = 180\nvalue = [84, 96]"] ;
675 -> 677 ;
678 [label="gini = 0.3841\nsamples = 27\nvalue = [20, 7]"] ;
677 -> 678 ;
679 [label="Workclass <= 6.5\ngini = 0.4867\nsamples = 153\nvalue = [64, 89]"] ;
677 -> 679 ;
680 [label="Hours per week <= 42.5\ngini = 0.4765\nsamples = 143\nvalue = [56, 87]"] ;
679 -> 680 ;
681 [label="Age <= 59.5\ngini = 0.4548\nsamples = 123\nvalue = [43, 80]"] ;
680 -> 681 ;
682 [label="fnlwgt <= 189901.0\ngini = 0.4364\nsamples = 115\nvalue = [37, 78]"] ;
681 -> 682 ;
683 [label="gini = 0.3785\nsamples = 71\nvalue = [18, 53]"] ;
682 -> 683 ;
684 [label="gini = 0.4907\nsamples = 44\nvalue = [19, 25]"] ;
682 -> 684 ;
685 [label="gini = 0.375\nsamples = 8\nvalue = [6, 2]"] ;
681 -> 685 ;
686 [label="gini = 0.455\nsamples = 20\nvalue = [13, 7]"] ;
680 -> 686 ;
687 [label="gini = 0.32\nsamples = 10\nvalue = [8, 2]"] ;
679 -> 687 ;
688 [label="Occupation <= 9.5\ngini = 0.3444\nsamples = 294\nvalue = [229, 65]"] ;
674 -> 688 ;
689 [label="Capital Gain <= 4164.0\ngini = 0.2473\nsamples = 173\nvalue = [148, 25]"] ;
688 -> 689 ;
690 [label="fnlwgt <= 176029.5\ngini = 0.234\nsamples = 170\nvalue = [147, 23]"] ;
689 -> 690 ;
691 [label="gini = 0.3084\nsamples = 84\nvalue = [68, 16]"] ;
690 -> 691 ;
692 [label="gini = 0.1495\nsamples = 86\nvalue = [79, 7]"] ;
690 -> 692 ;
693 [label="gini = 0.4444\nsamples = 3\nvalue = [1, 2]"] ;
689 -> 693 ;
694 [label="Hours per week <= 39.0\ngini = 0.4426\nsamples = 121\nvalue = [81, 40]"] ;
688 -> 694 ;
695 [label="gini = 0.2604\nsamples = 39\nvalue = [33, 6]"] ;
694 -> 695 ;
696 [label="gini = 0.4854\nsamples = 82\nvalue = [48, 34]"] ;
694 -> 696 ;
697 [label="Age <= 24.5\ngini = 0.4451\nsamples = 353\nvalue = [118, 235]"] ;
673 -> 697 ;
698 [label="gini = 0.1528\nsamples = 12\nvalue = [11, 1]"] ;
697 -> 698 ;
699 [label="Capital Loss <= 1794.0\ngini = 0.4306\nsamples = 341\nvalue = [107, 234]"] ;
697 -> 699 ;
700 [label="Country <= 38.0\ngini = 0.4521\nsamples = 307\nvalue = [106, 201]"] ;
699 -> 700 ;
701 [label="gini = 0.4973\nsamples = 41\nvalue = [22, 19]"] ;
700 -> 701 ;
702 [label="Hours per week <= 44.5\ngini = 0.4321\nsamples = 266\nvalue = [84, 182]"] ;
700 -> 702 ;
703 [label="Capital Loss <= 1556.5\ngini = 0.4633\nsamples = 203\nvalue = [74, 129]"] ;
702 -> 703 ;
704 [label="Age <= 54.0\ngini = 0.4579\nsamples = 200\nvalue = [71, 129]"] ;
703 -> 704 ;
705 [label="Age <= 26.5\ngini = 0.442\nsamples = 182\nvalue = [60, 122]"] ;
704 -> 705 ;
706 [label="gini = 0.4628\nsamples = 11\nvalue = [7, 4]"] ;
705 -> 706 ;
707 [label="fnlwgt <= 102613.5\ngini = 0.4278\nsamples = 171\nvalue = [53, 118]"] ;
705 -> 707 ;
708 [label="gini = 0.4898\nsamples = 49\nvalue = [21, 28]"] ;
707 -> 708 ;
709 [label="fnlwgt <= 141581.0\ngini = 0.387\nsamples = 122\nvalue = [32, 90]"] ;
707 -> 709 ;
710 [label="gini = 0.1372\nsamples = 27\nvalue = [2, 25]"] ;
709 -> 710 ;
711 [label="gini = 0.4321\nsamples = 95\nvalue = [30, 65]"] ;
709 -> 711 ;
712 [label="gini = 0.4753\nsamples = 18\nvalue = [11, 7]"] ;
704 -> 712 ;
713 [label="gini = 0.0\nsamples = 3\nvalue = [3, 0]"] ;
703 -> 713 ;
714 [label="gini = 0.2671\nsamples = 63\nvalue = [10, 53]"] ;
702 -> 714 ;
715 [label="gini = 0.0571\nsamples = 34\nvalue = [1, 33]"] ;
699 -> 715 ;
716 [label="Age <= 18.5\ngini = 0.0453\nsamples = 259\nvalue = [6, 253]"] ;
398 -> 716 ;
717 [label="gini = 0.0\nsamples = 2\nvalue = [2, 0]"] ;
716 -> 717 ;
718 [label="Education-Num <= 3.0\ngini = 0.0306\nsamples = 257\nvalue = [4, 253]"] ;
716 -> 718 ;
719 [label="gini = 0.0\nsamples = 1\nvalue = [1, 0]"] ;
718 -> 719 ;
720 [label="Hours per week <= 35.5\ngini = 0.0232\nsamples = 256\nvalue = [3, 253]"] ;
718 -> 720 ;
721 [label="gini = 0.1699\nsamples = 32\nvalue = [3, 29]"] ;
720 -> 721 ;
722 [label="gini = 0.0\nsamples = 224\nvalue = [0, 224]"] ;
720 -> 722 ;
}