------
badges
------
 
id                             82946
userid                          3718
name                         Teacher
date      2008-09-15 08:55:03.923000

--------
comments
--------

id                                                          20827
postid                                                      67981
score                                                           0
post_text       I take issue with that last statement. You hav...
creationdate                           2008-09-20 20:26:09.017000
userid                                                       9362

-----------
posthistory
-----------

id                                                                   6
posthistorytypeid                                                    2
postid                                                               7
revisionguid                      c30df0f4-a2d9-426e-a2dd-2cc3aa4d9205
creationdate                                2008-07-31 22:17:57.883000
userid                                                               9
posttext             The explicit cast to double in the first answe...

---------
postlinks
---------

id                                       19
creationdate     2010-04-26 02:59:48.130000
postid                                  109
relatedpostid                         32412
linktypeid                                1

-----
posts
-----

id                                              9224400
posttypeid                                            1
acceptedanswerid                                9225322
parentid                                           None
creationdate                 2012-02-10 07:46:45.420000
score                                                -5
viewcount                                           291
body                                               None
n                                      365256
lasteditoruserid                                   None
lasteditordisplayname                              None
lasteditdate                                       None
lastactivitydate             2012-02-12 20:22:29.110000
title                    Ruby string compare: == vs ===
tags                              <ruby-on-rails><ruby>
answercount                                           1
commentcount                                          0
favoritecount                                      None
closeddate                   2012-02-10 12:54:39.910000
communityowneddate                                 None

-----
tags
-----
id                     1
tagname             .net
count             238911
excerptpostid    3624959
wikipostid       3607476

------
users
------

id                                                           6702374
reputation                                                         1
creationdate                              2016-08-10 21:52:00.990000
displayname                                      Sgt Scott D Rickert
lastaccessdate                            2016-08-10 21:52:00.990000
websiteurl                                                      None
location                                                        None
aboutme                                                         None
views                                                              0
upvotes                                                            0
downvotes                                                          0
profileimageurl    https://lh4.googleusercontent.com/-mNWpkN4404U...
age                                                             None
accountid                                                    8990197

-----
votes
-----

id                                1
postid                            1
votetypeid                        2
userid                         None
creationdate    2008-07-31 00:00:00
bountyamount                   None